BuildFiles/tb_PRNG.vcd
$date
	Fri Apr 26 21:45:08 2024
$end
$version
	Icarus Verilog
$end
$timescale
	1ns
$end
$scope module tb_PRNG $end
$var wire 4 ! tb_prn [3:0] $end
$var reg 1 " tb_clk $end
$var reg 4 # tb_limit [3:0] $end
$var reg 1 $ tb_nreset $end
$var reg 32 % tb_seed [31:0] $end
$var reg 1 & tb_shuffle_init $end
$scope module TestPRNG $end
$var wire 1 " clk $end
$var wire 4 ' limit [3:0] $end
$var wire 1 $ rstn $end
$var wire 32 ( seed [31:0] $end
$var wire 1 & shuffle_init $end
$var wire 4 ) prn4 [3:0] $end
$var wire 32 * prn32 [31:0] $end
$var reg 4 + limit_plusone [3:0] $end
$scope module RemainderCalculator $end
$var wire 4 , modular_i [3:0] $end
$var wire 16 - third_layer [15:0] $end
$var wire 32 . target_i [31:0] $end
$var wire 32 / second_layer [31:0] $end
$var wire 4 0 result_o [3:0] $end
$var wire 8 1 fourth_layer [7:0] $end
$var wire 64 2 first_layer [63:0] $end
$var wire 128 3 filtered [127:0] $end
$var reg 128 4 predefined [127:0] $end
$scope begin first_layer_connection[0] $end
$var parameter 2 5 i $end
$scope module ModAdderInst1 $end
$var wire 4 6 first_operand_i [3:0] $end
$var wire 4 7 modular_i [3:0] $end
$var wire 4 8 second_operand_i [3:0] $end
$var wire 5 9 temp_sum [4:0] $end
$var wire 4 : sum_o [3:0] $end
$var wire 5 ; mod_sum [4:0] $end
$upscope $end
$upscope $end
$scope begin first_layer_connection[1] $end
$var parameter 2 < i $end
$scope module ModAdderInst1 $end
$var wire 4 = first_operand_i [3:0] $end
$var wire 4 > modular_i [3:0] $end
$var wire 4 ? second_operand_i [3:0] $end
$var wire 5 @ temp_sum [4:0] $end
$var wire 4 A sum_o [3:0] $end
$var wire 5 B mod_sum [4:0] $end
$upscope $end
$upscope $end
$scope begin first_layer_connection[2] $end
$var parameter 3 C i $end
$scope module ModAdderInst1 $end
$var wire 4 D first_operand_i [3:0] $end
$var wire 4 E modular_i [3:0] $end
$var wire 4 F second_operand_i [3:0] $end
$var wire 5 G temp_sum [4:0] $end
$var wire 4 H sum_o [3:0] $end
$var wire 5 I mod_sum [4:0] $end
$upscope $end
$upscope $end
$scope begin first_layer_connection[3] $end
$var parameter 3 J i $end
$scope module ModAdderInst1 $end
$var wire 4 K first_operand_i [3:0] $end
$var wire 4 L modular_i [3:0] $end
$var wire 4 M second_operand_i [3:0] $end
$var wire 5 N temp_sum [4:0] $end
$var wire 4 O sum_o [3:0] $end
$var wire 5 P mod_sum [4:0] $end
$upscope $end
$upscope $end
$scope begin first_layer_connection[4] $end
$var parameter 4 Q i $end
$scope module ModAdderInst1 $end
$var wire 4 R first_operand_i [3:0] $end
$var wire 4 S modular_i [3:0] $end
$var wire 4 T second_operand_i [3:0] $end
$var wire 5 U temp_sum [4:0] $end
$var wire 4 V sum_o [3:0] $end
$var wire 5 W mod_sum [4:0] $end
$upscope $end
$upscope $end
$scope begin first_layer_connection[5] $end
$var parameter 4 X i $end
$scope module ModAdderInst1 $end
$var wire 4 Y first_operand_i [3:0] $end
$var wire 4 Z modular_i [3:0] $end
$var wire 4 [ second_operand_i [3:0] $end
$var wire 5 \ temp_sum [4:0] $end
$var wire 4 ] sum_o [3:0] $end
$var wire 5 ^ mod_sum [4:0] $end
$upscope $end
$upscope $end
$scope begin first_layer_connection[6] $end
$var parameter 4 _ i $end
$scope module ModAdderInst1 $end
$var wire 4 ` first_operand_i [3:0] $end
$var wire 4 a modular_i [3:0] $end
$var wire 4 b second_operand_i [3:0] $end
$var wire 5 c temp_sum [4:0] $end
$var wire 4 d sum_o [3:0] $end
$var wire 5 e mod_sum [4:0] $end
$upscope $end
$upscope $end
$scope begin first_layer_connection[7] $end
$var parameter 4 f i $end
$scope module ModAdderInst1 $end
$var wire 4 g first_operand_i [3:0] $end
$var wire 4 h modular_i [3:0] $end
$var wire 4 i second_operand_i [3:0] $end
$var wire 5 j temp_sum [4:0] $end
$var wire 4 k sum_o [3:0] $end
$var wire 5 l mod_sum [4:0] $end
$upscope $end
$upscope $end
$scope begin first_layer_connection[8] $end
$var parameter 5 m i $end
$scope module ModAdderInst1 $end
$var wire 4 n first_operand_i [3:0] $end
$var wire 4 o modular_i [3:0] $end
$var wire 4 p second_operand_i [3:0] $end
$var wire 5 q temp_sum [4:0] $end
$var wire 4 r sum_o [3:0] $end
$var wire 5 s mod_sum [4:0] $end
$upscope $end
$upscope $end
$scope begin first_layer_connection[9] $end
$var parameter 5 t i $end
$scope module ModAdderInst1 $end
$var wire 4 u first_operand_i [3:0] $end
$var wire 4 v modular_i [3:0] $end
$var wire 4 w second_operand_i [3:0] $end
$var wire 5 x temp_sum [4:0] $end
$var wire 4 y sum_o [3:0] $end
$var wire 5 z mod_sum [4:0] $end
$upscope $end
$upscope $end
$scope begin first_layer_connection[10] $end
$var parameter 5 { i $end
$scope module ModAdderInst1 $end
$var wire 4 | first_operand_i [3:0] $end
$var wire 4 } modular_i [3:0] $end
$var wire 4 ~ second_operand_i [3:0] $end
$var wire 5 !" temp_sum [4:0] $end
$var wire 4 "" sum_o [3:0] $end
$var wire 5 #" mod_sum [4:0] $end
$upscope $end
$upscope $end
$scope begin first_layer_connection[11] $end
$var parameter 5 $" i $end
$scope module ModAdderInst1 $end
$var wire 4 %" first_operand_i [3:0] $end
$var wire 4 &" modular_i [3:0] $end
$var wire 4 '" second_operand_i [3:0] $end
$var wire 5 (" temp_sum [4:0] $end
$var wire 4 )" sum_o [3:0] $end
$var wire 5 *" mod_sum [4:0] $end
$upscope $end
$upscope $end
$scope begin first_layer_connection[12] $end
$var parameter 5 +" i $end
$scope module ModAdderInst1 $end
$var wire 4 ," first_operand_i [3:0] $end
$var wire 4 -" modular_i [3:0] $end
$var wire 4 ." second_operand_i [3:0] $end
$var wire 5 /" temp_sum [4:0] $end
$var wire 4 0" sum_o [3:0] $end
$var wire 5 1" mod_sum [4:0] $end
$upscope $end
$upscope $end
$scope begin first_layer_connection[13] $end
$var parameter 5 2" i $end
$scope module ModAdderInst1 $end
$var wire 4 3" first_operand_i [3:0] $end
$var wire 4 4" modular_i [3:0] $end
$var wire 4 5" second_operand_i [3:0] $end
$var wire 5 6" temp_sum [4:0] $end
$var wire 4 7" sum_o [3:0] $end
$var wire 5 8" mod_sum [4:0] $end
$upscope $end
$upscope $end
$scope begin first_layer_connection[14] $end
$var parameter 5 9" i $end
$scope module ModAdderInst1 $end
$var wire 4 :" first_operand_i [3:0] $end
$var wire 4 ;" modular_i [3:0] $end
$var wire 4 <" second_operand_i [3:0] $end
$var wire 5 =" temp_sum [4:0] $end
$var wire 4 >" sum_o [3:0] $end
$var wire 5 ?" mod_sum [4:0] $end
$upscope $end
$upscope $end
$scope begin first_layer_connection[15] $end
$var parameter 5 @" i $end
$scope module ModAdderInst1 $end
$var wire 4 A" first_operand_i [3:0] $end
$var wire 4 B" modular_i [3:0] $end
$var wire 4 C" second_operand_i [3:0] $end
$var wire 5 D" temp_sum [4:0] $end
$var wire 4 E" sum_o [3:0] $end
$var wire 5 F" mod_sum [4:0] $end
$upscope $end
$upscope $end
$scope begin fouurth_layer_connection[0] $end
$var parameter 2 G" i $end
$scope module ModAdderInst4 $end
$var wire 4 H" first_operand_i [3:0] $end
$var wire 4 I" modular_i [3:0] $end
$var wire 4 J" second_operand_i [3:0] $end
$var wire 5 K" temp_sum [4:0] $end
$var wire 4 L" sum_o [3:0] $end
$var wire 5 M" mod_sum [4:0] $end
$upscope $end
$upscope $end
$scope begin fouurth_layer_connection[1] $end
$var parameter 2 N" i $end
$scope module ModAdderInst4 $end
$var wire 4 O" first_operand_i [3:0] $end
$var wire 4 P" modular_i [3:0] $end
$var wire 4 Q" second_operand_i [3:0] $end
$var wire 5 R" temp_sum [4:0] $end
$var wire 4 S" sum_o [3:0] $end
$var wire 5 T" mod_sum [4:0] $end
$upscope $end
$upscope $end
$scope begin predefined_filter[0] $end
$var parameter 2 U" i $end
$upscope $end
$scope begin predefined_filter[1] $end
$var parameter 2 V" i $end
$upscope $end
$scope begin predefined_filter[2] $end
$var parameter 3 W" i $end
$upscope $end
$scope begin predefined_filter[3] $end
$var parameter 3 X" i $end
$upscope $end
$scope begin predefined_filter[4] $end
$var parameter 4 Y" i $end
$upscope $end
$scope begin predefined_filter[5] $end
$var parameter 4 Z" i $end
$upscope $end
$scope begin predefined_filter[6] $end
$var parameter 4 [" i $end
$upscope $end
$scope begin predefined_filter[7] $end
$var parameter 4 \" i $end
$upscope $end
$scope begin predefined_filter[8] $end
$var parameter 5 ]" i $end
$upscope $end
$scope begin predefined_filter[9] $end
$var parameter 5 ^" i $end
$upscope $end
$scope begin predefined_filter[10] $end
$var parameter 5 _" i $end
$upscope $end
$scope begin predefined_filter[11] $end
$var parameter 5 `" i $end
$upscope $end
$scope begin predefined_filter[12] $end
$var parameter 5 a" i $end
$upscope $end
$scope begin predefined_filter[13] $end
$var parameter 5 b" i $end
$upscope $end
$scope begin predefined_filter[14] $end
$var parameter 5 c" i $end
$upscope $end
$scope begin predefined_filter[15] $end
$var parameter 5 d" i $end
$upscope $end
$scope begin predefined_filter[16] $end
$var parameter 6 e" i $end
$upscope $end
$scope begin predefined_filter[17] $end
$var parameter 6 f" i $end
$upscope $end
$scope begin predefined_filter[18] $end
$var parameter 6 g" i $end
$upscope $end
$scope begin predefined_filter[19] $end
$var parameter 6 h" i $end
$upscope $end
$scope begin predefined_filter[20] $end
$var parameter 6 i" i $end
$upscope $end
$scope begin predefined_filter[21] $end
$var parameter 6 j" i $end
$upscope $end
$scope begin predefined_filter[22] $end
$var parameter 6 k" i $end
$upscope $end
$scope begin predefined_filter[23] $end
$var parameter 6 l" i $end
$upscope $end
$scope begin predefined_filter[24] $end
$var parameter 6 m" i $end
$upscope $end
$scope begin predefined_filter[25] $end
$var parameter 6 n" i $end
$upscope $end
$scope begin predefined_filter[26] $end
$var parameter 6 o" i $end
$upscope $end
$scope begin predefined_filter[27] $end
$var parameter 6 p" i $end
$upscope $end
$scope begin predefined_filter[28] $end
$var parameter 6 q" i $end
$upscope $end
$scope begin predefined_filter[29] $end
$var parameter 6 r" i $end
$upscope $end
$scope begin predefined_filter[30] $end
$var parameter 6 s" i $end
$upscope $end
$scope begin predefined_filter[31] $end
$var parameter 6 t" i $end
$upscope $end
$scope begin second_layer_connection[0] $end
$var parameter 2 u" i $end
$scope module ModAdderInst2 $end
$var wire 4 v" first_operand_i [3:0] $end
$var wire 4 w" modular_i [3:0] $end
$var wire 4 x" second_operand_i [3:0] $end
$var wire 5 y" temp_sum [4:0] $end
$var wire 4 z" sum_o [3:0] $end
$var wire 5 {" mod_sum [4:0] $end
$upscope $end
$upscope $end
$scope begin second_layer_connection[1] $end
$var parameter 2 |" i $end
$scope module ModAdderInst2 $end
$var wire 4 }" first_operand_i [3:0] $end
$var wire 4 ~" modular_i [3:0] $end
$var wire 4 !# second_operand_i [3:0] $end
$var wire 5 "# temp_sum [4:0] $end
$var wire 4 ## sum_o [3:0] $end
$var wire 5 $# mod_sum [4:0] $end
$upscope $end
$upscope $end
$scope begin second_layer_connection[2] $end
$var parameter 3 %# i $end
$scope module ModAdderInst2 $end
$var wire 4 &# first_operand_i [3:0] $end
$var wire 4 '# modular_i [3:0] $end
$var wire 4 (# second_operand_i [3:0] $end
$var wire 5 )# temp_sum [4:0] $end
$var wire 4 *# sum_o [3:0] $end
$var wire 5 +# mod_sum [4:0] $end
$upscope $end
$upscope $end
$scope begin second_layer_connection[3] $end
$var parameter 3 ,# i $end
$scope module ModAdderInst2 $end
$var wire 4 -# first_operand_i [3:0] $end
$var wire 4 .# modular_i [3:0] $end
$var wire 4 /# second_operand_i [3:0] $end
$var wire 5 0# temp_sum [4:0] $end
$var wire 4 1# sum_o [3:0] $end
$var wire 5 2# mod_sum [4:0] $end
$upscope $end
$upscope $end
$scope begin second_layer_connection[4] $end
$var parameter 4 3# i $end
$scope module ModAdderInst2 $end
$var wire 4 4# first_operand_i [3:0] $end
$var wire 4 5# modular_i [3:0] $end
$var wire 4 6# second_operand_i [3:0] $end
$var wire 5 7# temp_sum [4:0] $end
$var wire 4 8# sum_o [3:0] $end
$var wire 5 9# mod_sum [4:0] $end
$upscope $end
$upscope $end
$scope begin second_layer_connection[5] $end
$var parameter 4 :# i $end
$scope module ModAdderInst2 $end
$var wire 4 ;# first_operand_i [3:0] $end
$var wire 4 <# modular_i [3:0] $end
$var wire 4 =# second_operand_i [3:0] $end
$var wire 5 ># temp_sum [4:0] $end
$var wire 4 ?# sum_o [3:0] $end
$var wire 5 @# mod_sum [4:0] $end
$upscope $end
$upscope $end
$scope begin second_layer_connection[6] $end
$var parameter 4 A# i $end
$scope module ModAdderInst2 $end
$var wire 4 B# first_operand_i [3:0] $end
$var wire 4 C# modular_i [3:0] $end
$var wire 4 D# second_operand_i [3:0] $end
$var wire 5 E# temp_sum [4:0] $end
$var wire 4 F# sum_o [3:0] $end
$var wire 5 G# mod_sum [4:0] $end
$upscope $end
$upscope $end
$scope begin second_layer_connection[7] $end
$var parameter 4 H# i $end
$scope module ModAdderInst2 $end
$var wire 4 I# first_operand_i [3:0] $end
$var wire 4 J# modular_i [3:0] $end
$var wire 4 K# second_operand_i [3:0] $end
$var wire 5 L# temp_sum [4:0] $end
$var wire 4 M# sum_o [3:0] $end
$var wire 5 N# mod_sum [4:0] $end
$upscope $end
$upscope $end
$scope begin third_layer_connection[0] $end
$var parameter 2 O# i $end
$scope module ModAdderInst3 $end
$var wire 4 P# first_operand_i [3:0] $end
$var wire 4 Q# modular_i [3:0] $end
$var wire 4 R# second_operand_i [3:0] $end
$var wire 5 S# temp_sum [4:0] $end
$var wire 4 T# sum_o [3:0] $end
$var wire 5 U# mod_sum [4:0] $end
$upscope $end
$upscope $end
$scope begin third_layer_connection[1] $end
$var parameter 2 V# i $end
$scope module ModAdderInst3 $end
$var wire 4 W# first_operand_i [3:0] $end
$var wire 4 X# modular_i [3:0] $end
$var wire 4 Y# second_operand_i [3:0] $end
$var wire 5 Z# temp_sum [4:0] $end
$var wire 4 [# sum_o [3:0] $end
$var wire 5 \# mod_sum [4:0] $end
$upscope $end
$upscope $end
$scope begin third_layer_connection[2] $end
$var parameter 3 ]# i $end
$scope module ModAdderInst3 $end
$var wire 4 ^# first_operand_i [3:0] $end
$var wire 4 _# modular_i [3:0] $end
$var wire 4 `# second_operand_i [3:0] $end
$var wire 5 a# temp_sum [4:0] $end
$var wire 4 b# sum_o [3:0] $end
$var wire 5 c# mod_sum [4:0] $end
$upscope $end
$upscope $end
$scope begin third_layer_connection[3] $end
$var parameter 3 d# i $end
$scope module ModAdderInst3 $end
$var wire 4 e# first_operand_i [3:0] $end
$var wire 4 f# modular_i [3:0] $end
$var wire 4 g# second_operand_i [3:0] $end
$var wire 5 h# temp_sum [4:0] $end
$var wire 4 i# sum_o [3:0] $end
$var wire 5 j# mod_sum [4:0] $end
$upscope $end
$upscope $end
$scope module ModAdderInstFinal $end
$var wire 4 k# first_operand_i [3:0] $end
$var wire 4 l# modular_i [3:0] $end
$var wire 4 m# second_operand_i [3:0] $end
$var wire 5 n# temp_sum [4:0] $end
$var wire 4 o# sum_o [3:0] $end
$var wire 5 p# mod_sum [4:0] $end
$upscope $end
$upscope $end
$scope module XorShiftInst $end
$var wire 1 " clk_i $end
$var wire 1 & collect_seed_i $end
$var wire 32 q# first_stage [31:0] $end
$var wire 1 $ nreset_i $end
$var wire 32 r# prn_o [31:0] $end
$var wire 32 s# second_stage [31:0] $end
$var wire 32 t# seed_i [31:0] $end
$var wire 32 u# third_stage [31:0] $end
$var reg 32 v# state [31:0] $end
$upscope $end
$upscope $end
$upscope $end
$enddefinitions $end
$comment Show the parameter values. $end
$dumpall
b11 d#
b10 ]#
b1 V#
b0 O#
b111 H#
b110 A#
b101 :#
b100 3#
b11 ,#
b10 %#
b1 |"
b0 u"
b11111 t"
b11110 s"
b11101 r"
b11100 q"
b11011 p"
b11010 o"
b11001 n"
b11000 m"
b10111 l"
b10110 k"
b10101 j"
b10100 i"
b10011 h"
b10010 g"
b10001 f"
b10000 e"
b1111 d"
b1110 c"
b1101 b"
b1100 a"
b1011 `"
b1010 _"
b1001 ^"
b1000 ]"
b111 \"
b110 ["
b101 Z"
b100 Y"
b11 X"
b10 W"
b1 V"
b0 U"
b1 N"
b0 G"
b1111 @"
b1110 9"
b1101 2"
b1100 +"
b1011 $"
b1010 {
b1001 t
b1000 m
b111 f
b110 _
b101 X
b100 Q
b11 J
b10 C
b1 <
b0 5
$end
#0
$dumpvars
b0 v#
b0 u#
b10010000101010011010100100100 t#
b0 s#
b0 r#
b0 q#
b11111 p#
b0 o#
b0 n#
b0 m#
b1 l#
b0 k#
b11111 j#
b0 i#
b0 h#
b0 g#
b1 f#
b0 e#
b11111 c#
b0 b#
b0 a#
b0 `#
b1 _#
b0 ^#
b11111 \#
b0 [#
b0 Z#
b0 Y#
b1 X#
b0 W#
b11111 U#
b0 T#
b0 S#
b0 R#
b1 Q#
b0 P#
b11111 N#
b0 M#
b0 L#
b0 K#
b1 J#
b0 I#
b11111 G#
b0 F#
b0 E#
b0 D#
b1 C#
b0 B#
b11111 @#
b0 ?#
b0 >#
b0 =#
b1 <#
b0 ;#
b11111 9#
b0 8#
b0 7#
b0 6#
b1 5#
b0 4#
b11111 2#
b0 1#
b0 0#
b0 /#
b1 .#
b0 -#
b11111 +#
b0 *#
b0 )#
b0 (#
b1 '#
b0 &#
b11111 $#
b0 ##
b0 "#
b0 !#
b1 ~"
b0 }"
b11111 {"
b0 z"
b0 y"
b0 x"
b1 w"
b0 v"
b11111 T"
b0 S"
b0 R"
b0 Q"
b1 P"
b0 O"
b11111 M"
b0 L"
b0 K"
b0 J"
b1 I"
b0 H"
b11111 F"
b0 E"
b0 D"
b0 C"
b1 B"
b0 A"
b11111 ?"
b0 >"
b0 ="
b0 <"
b1 ;"
b0 :"
b11111 8"
b0 7"
b0 6"
b0 5"
b1 4"
b0 3"
b11111 1"
b0 0"
b0 /"
b0 ."
b1 -"
b0 ,"
b11111 *"
b0 )"
b0 ("
b0 '"
b1 &"
b0 %"
b11111 #"
b0 ""
b0 !"
b0 ~
b1 }
b0 |
b11111 z
b0 y
b0 x
b0 w
b1 v
b0 u
b11111 s
b0 r
b0 q
b0 p
b1 o
b0 n
b11111 l
b0 k
b0 j
b0 i
b1 h
b0 g
b11111 e
b0 d
b0 c
b0 b
b1 a
b0 `
b11111 ^
b0 ]
b0 \
b0 [
b1 Z
b0 Y
b11111 W
b0 V
b0 U
b0 T
b1 S
b0 R
b11111 P
b0 O
b0 N
b0 M
b1 L
b0 K
b11111 I
b0 H
b0 G
b0 F
b1 E
b0 D
b11111 B
b0 A
b0 @
b0 ?
b1 >
b0 =
b11111 ;
b0 :
b0 9
b0 8
b1 7
b0 6
b0 4
b0 3
b0 2
b0 1
b0 0
b0 /
b0 .
b0 -
b1 ,
b1 +
b0 *
b0 )
b10010000101010011010100100100 (
b0 '
0&
b10010000101010011010100100100 %
0$
b0 #
0"
b0 !
$end
#1
1$
#5
1"
#6
b1 4
b11110 p#
b11110 ;
b11110 B
b11110 I
b11110 P
b11110 W
b11110 ^
b11110 e
b11110 l
b11110 s
b11110 z
b11110 #"
b11110 *"
b11110 1"
b11110 8"
b11110 ?"
b11110 F"
b11110 M"
b11110 T"
b11110 {"
b11110 $#
b11110 +#
b11110 2#
b11110 9#
b11110 @#
b11110 G#
b11110 N#
b11110 U#
b11110 \#
b11110 c#
b11110 j#
b10 +
b10 ,
b10 7
b10 >
b10 E
b10 L
b10 S
b10 Z
b10 a
b10 h
b10 o
b10 v
b10 }
b10 &"
b10 -"
b10 4"
b10 ;"
b10 B"
b10 I"
b10 P"
b10 w"
b10 ~"
b10 '#
b10 .#
b10 5#
b10 <#
b10 C#
b10 J#
b10 Q#
b10 X#
b10 _#
b10 f#
b10 l#
b1 #
b1 '
#10
0"
#15
1"
#16
b100001001000010010000100100001001000010010000100100001001000010010000100100001001000010010000100100001001000010010000100100001 4
b11101 p#
b11101 ;
b11101 B
b11101 I
b11101 P
b11101 W
b11101 ^
b11101 e
b11101 l
b11101 s
b11101 z
b11101 #"
b11101 *"
b11101 1"
b11101 8"
b11101 ?"
b11101 F"
b11101 M"
b11101 T"
b11101 {"
b11101 $#
b11101 +#
b11101 2#
b11101 9#
b11101 @#
b11101 G#
b11101 N#
b11101 U#
b11101 \#
b11101 c#
b11101 j#
b11 +
b11 ,
b11 7
b11 >
b11 E
b11 L
b11 S
b11 Z
b11 a
b11 h
b11 o
b11 v
b11 }
b11 &"
b11 -"
b11 4"
b11 ;"
b11 B"
b11 I"
b11 P"
b11 w"
b11 ~"
b11 '#
b11 .#
b11 5#
b11 <#
b11 C#
b11 J#
b11 Q#
b11 X#
b11 _#
b11 f#
b11 l#
b10 #
b10 '
#20
0"
#25
1"
#26
b100001 4
b11100 p#
b11100 ;
b11100 B
b11100 I
b11100 P
b11100 W
b11100 ^
b11100 e
b11100 l
b11100 s
b11100 z
b11100 #"
b11100 *"
b11100 1"
b11100 8"
b11100 ?"
b11100 F"
b11100 M"
b11100 T"
b11100 {"
b11100 $#
b11100 +#
b11100 2#
b11100 9#
b11100 @#
b11100 G#
b11100 N#
b11100 U#
b11100 \#
b11100 c#
b11100 j#
b100 +
b100 ,
b100 7
b100 >
b100 E
b100 L
b100 S
b100 Z
b100 a
b100 h
b100 o
b100 v
b100 }
b100 &"
b100 -"
b100 4"
b100 ;"
b100 B"
b100 I"
b100 P"
b100 w"
b100 ~"
b100 '#
b100 .#
b100 5#
b100 <#
b100 C#
b100 J#
b100 Q#
b100 X#
b100 _#
b100 f#
b100 l#
b11 #
b11 '
#30
0"
#35
1"
#36
b110100001000010011010000100001001101000010000100110100001000010011010000100001001101000010000100110100001000010011010000100001 4
b11011 p#
b11011 ;
b11011 B
b11011 I
b11011 P
b11011 W
b11011 ^
b11011 e
b11011 l
b11011 s
b11011 z
b11011 #"
b11011 *"
b11011 1"
b11011 8"
b11011 ?"
b11011 F"
b11011 M"
b11011 T"
b11011 {"
b11011 $#
b11011 +#
b11011 2#
b11011 9#
b11011 @#
b11011 G#
b11011 N#
b11011 U#
b11011 \#
b11011 c#
b11011 j#
b101 +
b101 ,
b101 7
b101 >
b101 E
b101 L
b101 S
b101 Z
b101 a
b101 h
b101 o
b101 v
b101 }
b101 &"
b101 -"
b101 4"
b101 ;"
b101 B"
b101 I"
b101 P"
b101 w"
b101 ~"
b101 '#
b101 .#
b101 5#
b101 <#
b101 C#
b101 J#
b101 Q#
b101 X#
b101 _#
b101 f#
b101 l#
b100 #
b100 '
#40
0"
#45
1"
#46
b100100001001000010010000100100001001000010010000100100001001000010010000100100001001000010010000100100001001000010010000100001 4
b11010 p#
b11010 ;
b11010 B
b11010 I
b11010 P
b11010 W
b11010 ^
b11010 e
b11010 l
b11010 s
b11010 z
b11010 #"
b11010 *"
b11010 1"
b11010 8"
b11010 ?"
b11010 F"
b11010 M"
b11010 T"
b11010 {"
b11010 $#
b11010 +#
b11010 2#
b11010 9#
b11010 @#
b11010 G#
b11010 N#
b11010 U#
b11010 \#
b11010 c#
b11010 j#
b110 +
b110 ,
b110 7
b110 >
b110 E
b110 L
b110 S
b110 Z
b110 a
b110 h
b110 o
b110 v
b110 }
b110 &"
b110 -"
b110 4"
b110 ;"
b110 B"
b110 I"
b110 P"
b110 w"
b110 ~"
b110 '#
b110 .#
b110 5#
b110 <#
b110 C#
b110 J#
b110 Q#
b110 X#
b110 _#
b110 f#
b110 l#
b101 #
b101 '
#50
0"
#55
1"
#56
b100001010000100001010000100001010000100001010000100001010000100001010000100001010000100001010000100001010000100001010000100001 4
b11001 p#
b11001 ;
b11001 B
b11001 I
b11001 P
b11001 W
b11001 ^
b11001 e
b11001 l
b11001 s
b11001 z
b11001 #"
b11001 *"
b11001 1"
b11001 8"
b11001 ?"
b11001 F"
b11001 M"
b11001 T"
b11001 {"
b11001 $#
b11001 +#
b11001 2#
b11001 9#
b11001 @#
b11001 G#
b11001 N#
b11001 U#
b11001 \#
b11001 c#
b11001 j#
b111 +
b111 ,
b111 7
b111 >
b111 E
b111 L
b111 S
b111 Z
b111 a
b111 h
b111 o
b111 v
b111 }
b111 &"
b111 -"
b111 4"
b111 ;"
b111 B"
b111 I"
b111 P"
b111 w"
b111 ~"
b111 '#
b111 .#
b111 5#
b111 <#
b111 C#
b111 J#
b111 Q#
b111 X#
b111 _#
b111 f#
b111 l#
b110 #
b110 '
#60
0"
#65
1"
#66
b10000100001 4
b11000 p#
b11000 ;
b11000 B
b11000 I
b11000 P
b11000 W
b11000 ^
b11000 e
b11000 l
b11000 s
b11000 z
b11000 #"
b11000 *"
b11000 1"
b11000 8"
b11000 ?"
b11000 F"
b11000 M"
b11000 T"
b11000 {"
b11000 $#
b11000 +#
b11000 2#
b11000 9#
b11000 @#
b11000 G#
b11000 N#
b11000 U#
b11000 \#
b11000 c#
b11000 j#
b1000 +
b1000 ,
b1000 7
b1000 >
b1000 E
b1000 L
b1000 S
b1000 Z
b1000 a
b1000 h
b1000 o
b1000 v
b1000 }
b1000 &"
b1000 -"
b1000 4"
b1000 ;"
b1000 B"
b1000 I"
b1000 P"
b1000 w"
b1000 ~"
b1000 '#
b1000 .#
b1000 5#
b1000 <#
b1000 C#
b1000 J#
b1000 Q#
b1000 X#
b1000 _#
b1000 f#
b1000 l#
b111 #
b111 '
#70
0"
#75
1"
#76
b100001010101111000010000100001010101111000010000100001010101111000010000100001010101111000010000100001010101111000010000100001 4
b10111 p#
b10111 ;
b10111 B
b10111 I
b10111 P
b10111 W
b10111 ^
b10111 e
b10111 l
b10111 s
b10111 z
b10111 #"
b10111 *"
b10111 1"
b10111 8"
b10111 ?"
b10111 F"
b10111 M"
b10111 T"
b10111 {"
b10111 $#
b10111 +#
b10111 2#
b10111 9#
b10111 @#
b10111 G#
b10111 N#
b10111 U#
b10111 \#
b10111 c#
b10111 j#
b1001 +
b1001 ,
b1001 7
b1001 >
b1001 E
b1001 L
b1001 S
b1001 Z
b1001 a
b1001 h
b1001 o
b1001 v
b1001 }
b1001 &"
b1001 -"
b1001 4"
b1001 ;"
b1001 B"
b1001 I"
b1001 P"
b1001 w"
b1001 ~"
b1001 '#
b1001 .#
b1001 5#
b1001 <#
b1001 C#
b1001 J#
b1001 Q#
b1001 X#
b1001 _#
b1001 f#
b1001 l#
b1000 #
b1000 '
#80
0"
#85
1"
#86
b10000100001001101000010000100110100001000010011010000100001001101000010000100110100001000010011010000100001001101000010000100001 4
b10110 p#
b10110 ;
b10110 B
b10110 I
b10110 P
b10110 W
b10110 ^
b10110 e
b10110 l
b10110 s
b10110 z
b10110 #"
b10110 *"
b10110 1"
b10110 8"
b10110 ?"
b10110 F"
b10110 M"
b10110 T"
b10110 {"
b10110 $#
b10110 +#
b10110 2#
b10110 9#
b10110 @#
b10110 G#
b10110 N#
b10110 U#
b10110 \#
b10110 c#
b10110 j#
b1010 +
b1010 ,
b1010 7
b1010 >
b1010 E
b1010 L
b1010 S
b1010 Z
b1010 a
b1010 h
b1010 o
b1010 v
b1010 }
b1010 &"
b1010 -"
b1010 4"
b1010 ;"
b1010 B"
b1010 I"
b1010 P"
b1010 w"
b1010 ~"
b1010 '#
b1010 .#
b1010 5#
b1010 <#
b1010 C#
b1010 J#
b1010 Q#
b1010 X#
b1010 _#
b1010 f#
b1010 l#
b1001 #
b1001 '
#90
0"
#95
1"
#96
b0 4
b11111 p#
b11111 ;
b11111 B
b11111 I
b11111 P
b11111 W
b11111 ^
b11111 e
b11111 l
b11111 s
b11111 z
b11111 #"
b11111 *"
b11111 1"
b11111 8"
b11111 ?"
b11111 F"
b11111 M"
b11111 T"
b11111 {"
b11111 $#
b11111 +#
b11111 2#
b11111 9#
b11111 @#
b11111 G#
b11111 N#
b11111 U#
b11111 \#
b11111 c#
b11111 j#
b1 +
b1 ,
b1 7
b1 >
b1 E
b1 L
b1 S
b1 Z
b1 a
b1 h
b1 o
b1 v
b1 }
b1 &"
b1 -"
b1 4"
b1 ;"
b1 B"
b1 I"
b1 P"
b1 w"
b1 ~"
b1 '#
b1 .#
b1 5#
b1 <#
b1 C#
b1 J#
b1 Q#
b1 X#
b1 _#
b1 f#
b1 l#
b0 #
b0 '
#100
0"
1&
#105
b11001010001001101011001001110 *
b11001010001001101011001001110 .
b11001010001001101011001001110 r#
b11001010001001101011001001110 u#
b10110101110110001101011001001110 s#
b10110100101100011011010100100100 q#
b10010000101010011010100100100 v#
1"
#106
b1 4
b11110 p#
b11110 ;
b11110 B
b11110 I
b11110 P
b11110 W
b11110 ^
b11110 e
b11110 l
b11110 s
b11110 z
b11110 #"
b11110 *"
b11110 1"
b11110 8"
b11110 ?"
b11110 F"
b11110 M"
b11110 T"
b11110 {"
b11110 $#
b11110 +#
b11110 2#
b11110 9#
b11110 @#
b11110 G#
b11110 N#
b11110 U#
b11110 \#
b11110 c#
b11110 j#
b10 +
b10 ,
b10 7
b10 >
b10 E
b10 L
b10 S
b10 Z
b10 a
b10 h
b10 o
b10 v
b10 }
b10 &"
b10 -"
b10 4"
b10 ;"
b10 B"
b10 I"
b10 P"
b10 w"
b10 ~"
b10 '#
b10 .#
b10 5#
b10 <#
b10 C#
b10 J#
b10 Q#
b10 X#
b10 _#
b10 f#
b10 l#
b1 #
b1 '
#109
0&
#110
0"
#115
b10011010010011100000110001100010 *
b10011010010011100000110001100010 .
b10011010010011100000110001100010 r#
b10011010010011100000110001100010 u#
b10000010100010100000110001100010 s#
b10000011100011010001011001001110 q#
b11001010001001101011001001110 v#
1"
